[gd_scene load_steps=4 format=2]

[ext_resource path="res://Main.gd" type="Script" id=1]

[sub_resource type="Animation" id=1]
resource_name = "FadeIn"
length = 1.2
tracks/0/type = "value"
tracks/0/path = NodePath("FadeCanvas/Fade:color")
tracks/0/interp = 1
tracks/0/loop_wrap = true
tracks/0/imported = false
tracks/0/enabled = true
tracks/0/keys = {
"times": PoolRealArray( 0, 1 ),
"transitions": PoolRealArray( 1, 1 ),
"update": 0,
"values": [ Color( 0, 0, 0, 1 ), Color( 0, 0, 0, 0 ) ]
}

[sub_resource type="Animation" id=2]
resource_name = "FadeOut"
length = 1.2
tracks/0/type = "value"
tracks/0/path = NodePath("FadeCanvas/Fade:color")
tracks/0/interp = 1
tracks/0/loop_wrap = true
tracks/0/imported = false
tracks/0/enabled = true
tracks/0/keys = {
"times": PoolRealArray( 0, 1 ),
"transitions": PoolRealArray( 1, 1 ),
"update": 0,
"values": [ Color( 0, 0, 0, 0 ), Color( 0, 0, 0, 1 ) ]
}

[node name="Main" type="Node2D"]
script = ExtResource( 1 )

[node name="FadeAnimations" type="AnimationPlayer" parent="."]
anims/FadeIn = SubResource( 1 )
anims/FadeOut = SubResource( 2 )

[node name="Scenes" type="Node2D" parent="."]

[node name="FadeCanvas" type="CanvasLayer" parent="."]
layer = 2

[node name="Fade" type="ColorRect" parent="FadeCanvas"]
anchor_right = 1.0
anchor_bottom = 1.0
margin_left = -10.0
margin_top = -15.0
margin_right = 1290.0
margin_bottom = 735.0
color = Color( 0, 0, 0, 0 )
__meta__ = {
"_edit_use_anchors_": false
}

[connection signal="animation_finished" from="FadeAnimations" to="." method="_on_FadeAnimations_animation_finished"]
